R4DS Book Club: Chapter 4 & 5
…
**Answer to 2 (continued):** 

```r
filter(mpg, cyl == 8)
```

```
## # A tibble: 70 x 11
##    manufacturer model     displ  year   cyl trans  drv     cty   hwy fl    class
##    <chr>        <chr>     <dbl> <int> <int> <chr>  <chr> <int> <int> <chr> <chr>
##  1 audi         a6 quatt…   4.2  2008     8 auto(… 4        16    23 p     mids…
##  2 chevrolet    c1500 su…   5.3  2008     8 auto(… r        14    20 r     suv  
##  3 chevrolet    c1500 su…   5.3  2008     8 auto(… r        11    15 e     suv  
##  4 chevrolet    c1500 su…   5.3  2008     8 auto(… r        14    20 r     suv  
##  5 chevrolet    c1500 su…   5.7  1999     8 auto(… r        13    17 r     suv  
##  6 chevrolet    c1500 su…   6    2008     8 auto(… r        12    17 r     suv  
##  7 chevrolet    corvette    5.7  1999     8 manua… r        16    26 p     2sea…
##  8 chevrolet    corvette    5.7  1999     8 auto(… r        15    23 p     2sea…
##  9 chevrolet    corvette    6.2  2008     8 manua… r        16    26 p     2sea…
## 10 chevrolet    corvette    6.2  2008     8 auto(… r        15    25 p     2sea…
## # … with 60 more rows
```
…
All the functions / _verbs_ work similarly:

1. The first argument is a dataframe.
2. The subsequent arguments describe what to do with the dataframe.
3. The result is a new data frame.

**Let's see it in action:**

```r
filter(flights, month == 1, day == 1)
```

```
## # A tibble: 842 x 19
##     year month   day dep_time sched_dep_time dep_delay arr_time sched_arr_time
##    <int> <int> <int>    <int>          <int>     <dbl>    <int>          <int>
##  1  2013     1     1      517            515         2      830            819
##  2  2013     1     1      533            529         4      850            830
##  3  2013     1     1      542            540         2      923            850
##  4  2013     1     1      544            545        -1     1004           1022
##  5  2013     1     1      554            600        -6      812            837
##  6  2013     1     1      554            558        -4      740            728
##  7  2013     1     1      555            600        -5      913            854
##  8  2013     1     1      557            600        -3      709            723
##  9  2013     1     1      557            600        -3      838            846
## 10  2013     1     1      558            600        -2      753            745
## # … with 832 more rows, and 11 more variables: arr_delay <dbl>, carrier <chr>,
## #   flight <int>, tailnum <chr>, origin <chr>, dest <chr>, air_time <dbl>,
## #   distance <dbl>, hour <dbl>, minute <dbl>, time_hour <dttm>
```
---

## 5.1.3 dplyr basics

If you want to save the results, use the assignment operator (`<-`). And remember, putting the whole line in parentheses means the operation will be printed as well.

```r
jan1 <- filter(flights, month == 1, day == 1)

(jan1 <- filter(flights, month == 1, day == 1))
```

```
## # A tibble: 842 x 19
##     year month   day dep_time sched_dep_time dep_delay arr_time sched_arr_time
##    <int> <int> <int>    <int>          <int>     <dbl>    <int>          <int>
##  1  2013     1     1      517            515         2      830            819
##  2  2013     1     1      533            529         4      850            830
##  3  2013     1     1      542            540         2      923            850
##  4  2013     1     1      544            545        -1     1004           1022
##  5  2013     1     1      554            600        -6      812            837
##  6  2013     1     1      554            558        -4      740            728
##  7  2013     1     1      555            600        -5      913            854
##  8  2013     1     1      557            600        -3      709            723
##  9  2013     1     1      557            600        -3      838            846
## 10  2013     1     1      558            600        -2      753            745
## # … with 832 more rows, and 11 more variables: arr_delay <dbl>, carrier <chr>,
## #   flight <int>, tailnum <chr>, origin <chr>, dest <chr>, air_time <dbl>,
## #   distance <dbl>, hour <dbl>, minute <dbl>, time_hour <dttm>
```
…
## 5.2.2 Logical operators

The following code finds all flights that departed in November or December:

```r
filter(flights, month == 11 | month == 12)
```

```
## # A tibble: 55,403 x 19
##     year month   day dep_time sched_dep_time dep_delay arr_time sched_arr_time
##    <int> <int> <int>    <int>          <int>     <dbl>    <int>          <int>
##  1  2013    11     1        5           2359         6      352            345
##  2  2013    11     1       35           2250       105      123           2356
##  3  2013    11     1      455            500        -5      641            651
##  4  2013    11     1      539            545        -6      856            827
##  5  2013    11     1      542            545        -3      831            855
##  6  2013    11     1      549            600       -11      912            923
##  7  2013    11     1      550            600       -10      705            659
##  8  2013    11     1      554            600        -6      659            701
##  9  2013    11     1      554            600        -6      826            827
## 10  2013    11     1      554            600        -6      749            751
## # … with 55,393 more rows, and 11 more variables: arr_delay <dbl>,
## #   carrier <chr>, flight <int>, tailnum <chr>, origin <chr>, dest <chr>,
## #   air_time <dbl>, distance <dbl>, hour <dbl>, minute <dbl>, time_hour <dttm>
```
---

## 5.2.2 Logical operators

The order of operations doesn’t work like English, but checks each row to see if month equals `11` or `12`, and evaluates it as `TRUE` if it is the case. So you can’t write the code below, because only flights from January pops up then: 

```r
filter(flights, month == (11 | 12))
```

```
## # A tibble: 27,004 x 19
##     year month   day dep_time sched_dep_time dep_delay arr_time sched_arr_time
##    <int> <int> <int>    <int>          <int>     <dbl>    <int>          <int>
##  1  2013     1     1      517            515         2      830            819
##  2  2013     1     1      533            529         4      850            830
##  3  2013     1     1      542            540         2      923            850
##  4  2013     1     1      544            545        -1     1004           1022
##  5  2013     1     1      554            600        -6      812            837
##  6  2013     1     1      554            558        -4      740            728
##  7  2013     1     1      555            600        -5      913            854
##  8  2013     1     1      557            600        -3      709            723
##  9  2013     1     1      557            600        -3      838            846
## 10  2013     1     1      558            600        -2      753            745
## # … with 26,994 more rows, and 11 more variables: arr_delay <dbl>,
## #   carrier <chr>, flight <int>, tailnum <chr>, origin <chr>, dest <chr>,
## #   air_time <dbl>, distance <dbl>, hour <dbl>, minute <dbl>, time_hour <dttm>
```
…
